{
  "functions": {
    "predeploy": [
      "npm --prefix ./functions/ run lint",
      "npm --prefix ./functions/ run build"
    ]
  },
  "hosting": {
    "public": "dist",
    "ignore": [
      "firebase.json",
      "**/.*",
      "**/node_modules/**"
    ],
    "rewrites": [
      {
        "source": "**",
        "destination": "/index.html"
      }
    ]
  }
}
